…
Dataset

In all the following examples We will use a simple dataset, which is tips from reshape2 package. The dataset contains information about tips received by a waiter over a period of a few months. We will add a new column with tip_percent to use in our plots.

## Load packages
library(reshape2)
library(tidyverse)

## add a new column with tip_percent
tips <- tips %>% 
  mutate(tip_percent = tip/total_bill)

as_tibble(tips)

# A tibble: 244 x 8
   total_bill   tip sex    smoker day   time    size tip_percent
        <dbl> <dbl> <fct>  <fct>  <fct> <fct>  <int>       <dbl>
 1      17.0   1.01 Female No     Sun   Dinner     2      0.0594
 2      10.3   1.66 Male   No     Sun   Dinner     3      0.161 
 3      21.0   3.5  Male   No     Sun   Dinner     3      0.167 
 4      23.7   3.31 Male   No     Sun   Dinner     2      0.140 
 5      24.6   3.61 Female No     Sun   Dinner     4      0.147 
 6      25.3   4.71 Male   No     Sun   Dinner     4      0.186 
 7       8.77  2    Male   No     Sun   Dinner     2      0.228 
 8      26.9   3.12 Male   No     Sun   Dinner     4      0.116 
 9      15.0   1.96 Male   No     Sun   Dinner     2      0.130 
10      14.8   3.23 Male   No     Sun   Dinner     2      0.219 
# ... with 234 more rows
…
