…
2nd- divergent bars using the starwars dataset from dplyr package.

Example 1

Dataset (gapminder)

## load libraries
library(gapminder)
library(tidyverse)

Given the gapminder dataset which includes the the GDP per Capita for 142 countries, let’s say we are interested in creating a plot to answers the question: “What is the percentage change in GDP per capita between 1997 and 2007?” .

We need to have a dataframe with each country and the corresponding change, something like this:

## # A tibble: 25 x 4
##    country            year_1997 year_2007 gdp_change
##    <fct>                  <dbl>     <dbl>      <dbl>
##  1 Argentina             10967.    12779.      16.5 
##  2 Bolivia                3326.     3822.      14.9 
##  3 Brazil                 7958.     9066.      13.9 
##  4 Canada                28955.    36319.      25.4 
##  5 Chile                 10118.    13172.      30.2 
##  6 Colombia               6117.     7007.      14.5 
##  7 Costa Rica             6677.     9645.      44.5 
##  8 Cuba                   5432.     8948.      64.7 
##  9 Dominican Republic     3614.     6025.      66.7 
## 10 Ecuador                7429.     6873.      -7.49
## # ... with 15 more rows
…
